<?xml version="1.0" encoding="UTF-8"?>
<svg width="24px" height="24px" viewBox="0 0 24 24" version="1.1" xmlns="http://www.w3.org/2000/svg" xmlns:xlink="http://www.w3.org/1999/xlink">
    <!-- Generator: Sketch 42 (36781) - http://www.bohemiancoding.com/sketch -->
    <title>RadioButton_Static</title>
    <desc>Created with Sketch.</desc>
    <defs></defs>
    <g id="Desktop" stroke="none" stroke-width="1" fill="none" fill-rule="evenodd">
        <g id="Overview_RadioButton" transform="translate(-252.000000, -534.000000)" stroke="#D2D2D2" fill="#FFFFFF">
            <g id="Interaction-States-(" transform="translate(70.000000, 420.000000)">
                <g id="Static" transform="translate(2.000000, 106.000000)">
                    <g id="RadioButton_Static" transform="translate(181.000000, 9.000000)">
                        <g id="Static-Radio-Button">
                            <ellipse cx="11" cy="11" rx="11" ry="11"></ellipse>
                        </g>
                    </g>
                </g>
            </g>
        </g>
    </g>
</svg>