<?xml version="1.0" encoding="UTF-8"?>
<svg width="34px" height="31px" viewBox="0 0 34 31" version="1.1" xmlns="http://www.w3.org/2000/svg" xmlns:xlink="http://www.w3.org/1999/xlink">
    <!-- Generator: Sketch 45 (43475) - http://www.bohemiancoding.com/sketch -->
    <title>Shape</title>
    <desc>Created with Sketch.</desc>
    <defs></defs>
    <g id="Desktop" stroke="none" stroke-width="1" fill="none" fill-rule="evenodd">
        <g id="BB_8_Add_v2" transform="translate(-119.000000, -371.000000)" stroke="#FFFFFF" fill-rule="nonzero">
            <g id="Overview/States" transform="translate(70.000000, 255.000000)">
                <g id="Like" transform="translate(0.000000, 96.000000)">
                    <path d="M73.309498,21.3822076 C70.6746118,21.3822076 67.9934995,22.5288303 66.0057783,24.5354201 C66.0057783,24.5354201 65.9595522,24.583196 65.9595522,24.583196 C65.9595522,24.583196 65.9133261,24.583196 65.9133261,24.5354201 C64.1105092,22.76771 61.7067533,21 59.3492235,21 C56.9454677,21 54.5417118,21.9555189 52.7388949,23.8187809 C49.087035,27.5930807 49.087035,33.7561779 52.7388949,37.5304778 L65.219935,49.6655684 C65.4510654,49.8566722 65.7284218,50 66.0057783,50 C66.2831347,50 66.5604912,49.9044481 66.7916215,49.6655684 L79.2726616,37.5304778 C81.0754785,35.6672158 82,33.1828666 82,30.6985173 C82,28.214168 81.0754785,25.7298188 79.2726616,23.8665568 C77.5160708,22.1943987 75.4358974,21.3822076 73.309498,21.3822076 Z" id="Shape"></path>
                </g>
            </g>
        </g>
    </g>
</svg>