<?xml version="1.0" encoding="UTF-8"?>
<svg width="13px" height="50px" viewBox="0 0 13 50" version="1.1" xmlns="http://www.w3.org/2000/svg" xmlns:xlink="http://www.w3.org/1999/xlink">
    <!-- Generator: Sketch 42 (36781) - http://www.bohemiancoding.com/sketch -->
    <title>Icon_ArrowRight</title>
    <desc>Created with Sketch.</desc>
    <defs></defs>
    <g id="Page-1" stroke="none" stroke-width="1" fill="none" fill-rule="evenodd">
        <g id="Icon_ArrowRight" fill-rule="nonzero" fill="#000000">
            <g transform="translate(6.500000, 25.000000) scale(-1, 1) rotate(90.000000) translate(-6.500000, -25.000000) translate(-5.500000, 18.500000)" id="Shape">
                <path d="M0.219443274,0.467633011 C-0.0731477581,0.760437154 -0.0731477581,1.23494047 0.219443274,1.52774461 L11.4697749,12.7801308 C11.6102562,12.9208954 11.8009598,13 11.9998307,13 C12.1987017,13 12.3894053,12.9208954 12.5298865,12.7801308 L23.7802182,1.52774461 C24.0729599,1.23471921 24.07273,0.759861126 23.7797046,0.467119391 C23.4866792,0.174377655 23.0118211,0.17460761 22.7190794,0.467633011 L11.9998307,11.1879089 L1.27955488,0.467633011 C1.13907364,0.326868383 0.948370032,0.247763772 0.749499076,0.247763772 C0.55062812,0.247763772 0.359924508,0.326868383 0.219443274,0.467633011 L0.219443274,0.467633011 Z"></path>
            </g>
        </g>
    </g>
</svg>