<?xml version="1.0" encoding="UTF-8"?>
<svg width="98px" height="86px" viewBox="0 0 98 86" version="1.1" xmlns="http://www.w3.org/2000/svg" xmlns:xlink="http://www.w3.org/1999/xlink">
    <!-- Generator: Sketch 45.2 (43514) - http://www.bohemiancoding.com/sketch -->
    <title>Icon_Unsubscribe</title>
    <desc>Created with Sketch.</desc>
    <defs></defs>
    <g id="Screens" stroke="none" stroke-width="1" fill="none" fill-rule="evenodd">
        <g id="Icon_Unsubscribe" fill="#896806">
            <g>
                <path d="M36.0317488,70.5195456 C36.0210336,70.5602816 36.0103184,70.6014019 36,70.6421379 C38.7462739,72.5713341 41.4925478,74.5005303 44.2586648,76.4435614 C43.2002381,79.5921479 42.1497487,82.7169078 41.0464768,86 C41.4076197,85.7551996 41.6131934,85.6203096 41.8140048,85.4796551 C44.2229473,83.7929534 46.6350648,82.1112478 49.033689,80.4110956 C49.3618926,80.1785928 49.5940559,80.1413155 49.9325778,80.3957235 C50.7100273,80.9798626 51.5204163,81.522497 52.3181057,82.0808879 C54.1432666,83.3586921 55.9688244,84.6357278 57.894391,85.983475 C57.8312902,85.7317572 57.806288,85.5922555 57.7610459,85.459287 C56.8220743,82.6723287 55.896199,79.8807588 54.9250816,77.1045609 C54.7437164,76.5846002 54.8568216,76.3244278 55.3024958,76.0181391 C57.6479407,74.4071449 59.969574,72.7631009 62.2987477,71.1294329 C62.5352765,70.9634144 62.7662492,70.7900942 63,70.6202327 L62.9412647,70.5180084 L62.2003263,70.5180084 C59.2460975,70.5180084 56.2914719,70.5080165 53.3372431,70.5295375 C52.8808537,70.5326119 52.6586119,70.4276974 52.5197107,69.9807542 C52.075624,68.5511506 51.5803422,67.1357662 51.1025223,65.7157702 C50.5870006,64.1839423 50.0683041,62.6540359 49.5095246,61 C49.394832,61.274776 49.3233971,61.4208107 49.2718053,61.5733786 C48.3284681,64.3787835 47.3791781,67.1822668 46.4544933,69.9934361 C46.3211482,70.3977219 46.1294647,70.5326119 45.6857748,70.5291532 C42.8279831,70.5084008 39.9697945,70.5191613 37.1120028,70.5195456 L36.0317488,70.5195456 Z" id="Path"></path>
                <g id="Group-5">
                    <g id="Group-3">
                        <path d="M41.9143179,76.6847602 C41.2831368,78.2714839 40.6646337,79.852418 40.0117189,81.422159 C39.9587432,81.5499151 39.6580945,81.6992856 39.4928283,81.6834608 C32.6734465,81.0280834 25.981297,79.8535759 19.4353967,78.0850603 C19.0387578,77.9781465 18.9355231,77.816425 18.9382398,77.4860345 C18.9626901,75.0451587 18.9726514,72.6038969 18.9762736,70.1626351 C18.977632,69.0000928 18.9549928,67.8371644 18.9441259,66.6746221 C18.941862,66.455005 18.9436732,66.2353879 18.9436732,65.9744721 C20.4686501,66.3558107 21.8944674,66.7193946 23.3252652,67.0683117 C23.9804439,67.2281034 24.6369809,67.4029479 25.3071014,67.4963527 C26.6210809,67.6796886 27.7290437,68.1833797 28.8080283,68.8360554 C33.0632936,71.4120208 37.3547816,73.9435996 41.6322333,76.4925471 C41.7196207,76.5446531 41.7997635,76.6064083 41.9143179,76.6847602" id="Fill-9"></path>
                        <path d="M6.82110243,58.6274514 C8.00784964,59.1654939 9.10404003,59.7710812 10.2939567,60.1782798 C12.3360132,60.8768859 14.4450817,60.6406721 16.5378499,60.2643511 C17.8930329,60.0208039 19.2468574,59.7513967 20.6169822,59.5931489 C22.6803195,59.3553912 24.5199814,59.8347663 26.0906896,61.0436251 C24.4710808,62.2486241 20.0523604,64.2120548 17.9546115,64.6516749 L17.9546115,72.9982813 C12.8300007,73.4529542 8.34155155,72.3853606 4.50284766,69.4130037 C4.88001684,69.2200186 5.24631921,69.0347529 5.61081043,68.8463994 C6.95105147,68.1528109 7.90099259,67.1508322 8.60280799,65.9825002 C8.75132119,65.7350933 8.71147619,65.3580004 8.63133339,65.0662069 C8.11968732,63.2042865 7.57136574,61.3496995 7.03934438,59.4920247 C6.95150426,59.1863363 6.88358664,58.8764022 6.82110243,58.6274514" id="Fill-13"></path>
                        <path d="M0.532791091,43.800752 C1.34644418,46.2315925 3.56146416,47.4462409 6.00106508,48.4744656 C6.78890947,48.806786 7.5645287,49.1607207 8.34875082,49.4996026 C9.87010551,50.1569099 10.9898407,51.1558009 11.5318233,52.5236794 C12.1838324,54.1690705 12.7317012,55.8464972 13.2596475,57.5250817 C13.4769839,58.2163544 13.2773061,58.3510581 12.463653,58.1839329 C10.5542623,57.7917872 8.78070688,57.1093918 7.28787759,56.0294471 C2.87368506,52.8351574 1.07794319,48.5620808 0.532791091,43.800752" id="Fill-17"></path>
                        <path d="M0.574583066,30.6594688 C0.524324027,32.9864834 2.02213394,34.61219 3.86089031,36.0977895 C4.78683387,36.8457998 5.69104378,37.6142666 6.57397285,38.3985581 C7.61265965,39.320641 7.92734462,40.5121311 7.97443417,41.7179022 C8.03284333,43.2316774 7.95722838,44.7531721 7.8508241,46.2669474 C7.78969825,47.1315207 7.55651442,47.1917321 6.65683234,46.7150589 C3.6729849,45.1352827 1.80026972,42.8538126 0.826331045,40.0011065 C-0.229108772,36.9071691 -0.229108772,33.7943191 0.574583066,30.6594688" id="Fill-22"></path>
                        <path d="M17.0671546,41.5199766 C17.4293819,42.9222065 17.831907,44.3178749 18.1461392,45.7278242 C18.8479546,48.8757974 18.7537755,52.0006125 17.6756965,55.0899183 C17.1952925,56.4666742 17.039082,56.5195521 15.7631363,55.599785 C14.343658,54.575806 13.2633151,53.3453328 12.5465578,51.8720844 C11.9565801,50.6609098 11.9728803,49.4744373 12.7281242,48.3516499 C13.3719833,47.3944437 14.1290384,46.4908873 14.8675293,45.5819274 C15.6829935,44.5784048 16.5577724,43.6049879 16.8122371,42.3586899 C16.867024,42.0892827 16.8896632,41.8148579 16.9267915,41.5427489 C16.9734283,41.5354154 17.020065,41.527696 17.0671546,41.5199766" id="Fill-26"></path>
                        <path d="M16.5893768,32.4956836 C16.5821322,37.444594 15.6992032,42.1565187 11.6662549,46.3300149 C11.4774439,46.0579059 11.3719452,45.8691665 11.2288654,45.7043572 C10.0077066,44.2994255 9.29366603,42.736246 9.08946038,40.9893447 C8.93324986,39.649642 9.43674581,38.5322582 10.5705173,37.6452986 C11.508686,36.9111832 12.5170363,36.239209 13.5253865,35.5741823 C14.8022378,34.7316092 16.0279245,33.8643341 16.5893768,32.4956836" id="Fill-28"></path>
                        <path d="M6.18883466,34.8910149 C5.93346441,34.5880283 5.69756387,34.2715327 5.4200072,33.9835989 C3.24166273,31.7237432 2.5375834,29.0960578 2.77574786,26.2429657 C2.97361452,23.8719506 3.78636204,21.6464462 5.07589126,19.5440663 C5.14245053,19.4352227 5.231649,19.3364143 5.35254236,19.2372199 C4.65842429,21.194475 5.42725175,22.8946739 6.55151475,24.5423809 C7.07085815,25.3035142 7.56439286,26.0781565 8.0484191,26.8558865 C8.58406273,27.7166001 8.68231689,28.639455 8.51976738,29.5912576 C8.25171918,31.1613845 7.68981407,32.6566332 6.92777837,34.0997759 C6.8127712,34.3170772 6.64931613,34.5154659 6.50804748,34.7227319 C6.4016432,34.7786976 6.29523893,34.8350493 6.18883466,34.8910149" id="Fill-32"></path>
                        <path d="M40.2281045,0.330120346 C37.8165762,1.01135782 36.3459333,2.60155521 34.9364163,4.24077082 C33.4870543,5.92630285 31.6156975,7.0618273 29.215036,7.53579875 C27.7389597,7.82759226 26.267864,8.14138606 24.7813737,8.3872491 C24.088614,8.50188227 23.8812389,8.27338788 24.1633234,7.73225761 C25.2006518,5.74258102 26.6409582,4.00301315 28.8487336,2.84085676 C31.5255934,1.43167941 34.5130631,0.832267628 37.611465,0.571351746 C38.4844328,0.49763143 39.3560422,0.410788126 40.2281045,0.330120346" id="Fill-36"></path>
                        <path d="M13.3577659,9.13186289 C12.0356362,10.7139549 12.1058177,12.4411717 12.5631297,14.2158629 C12.7419794,14.9121532 12.8968316,15.6126892 13.0729646,16.3089795 C13.3550492,17.4248195 13.1173375,18.4634654 12.5024566,19.4662161 C11.6109247,20.9209379 10.5369207,22.2563949 9.08303085,23.5100263 C8.84079133,23.1580214 8.60987143,22.8920879 8.46181101,22.5964347 C7.48606121,20.646899 7.33075625,18.6410117 7.94337318,16.5907378 C8.82947173,13.6264863 10.7420319,11.1991195 13.3577659,9.13186289" id="Fill-42"></path>
                        <path d="M24.7938706,1.46444828 C22.7386834,2.83001099 22.2682407,4.78263444 22.0880326,6.79006565 C21.9073717,8.80328643 20.8881546,10.3622202 19.033098,11.5610438 C18.2094837,12.0932968 17.3808887,12.621304 16.5368991,13.1296268 C16.2235725,13.3179803 15.859534,13.4453505 15.3868274,13.6607219 C15.2976289,13.2118385 15.1980164,12.8737286 15.1685854,12.531373 C14.9394767,9.85891503 16.12396,7.61912973 18.1189269,5.63833046 C19.8807099,3.88911333 22.0278123,2.56909511 24.4461324,1.55862502 C24.5543478,1.5134665 24.677505,1.4953259 24.7938706,1.46444828" id="Fill-44"></path>
                        <path d="M18.5738391,24.22218 C17.1493802,28.2223755 15.1145683,31.8921806 11.0834312,34.5001815 C10.3123398,34.9984691 10.1909936,34.9645037 9.87947814,34.1751945 C9.34926792,32.833562 9.23154404,31.4683852 9.50321452,30.0669273 C9.75269858,28.7812604 10.5387318,27.8364053 11.9020649,27.2856258 C13.0326668,26.829023 14.2076417,26.4511581 15.3703913,26.0536087 C16.5874751,25.6371469 17.7506775,25.1604736 18.5738391,24.22218" id="Fill-48"></path>
                        <path d="M23.6636761,16.7130903 C22.650798,17.7602276 21.675501,18.8355407 20.6173444,19.8483266 C18.648639,21.7326333 16.3385344,23.2313558 13.5647788,24.1723512 C12.4536465,24.5494441 12.3653536,24.5085313 12.3562979,23.5115701 C12.3440727,22.2328507 12.6845664,21.0274657 13.3641954,19.882292 C14.0066961,18.7996455 15.0059907,18.1268993 16.3983019,17.9288966 C17.4369887,17.781456 18.489259,17.6884371 19.540171,17.6197344 C20.966441,17.5263296 22.3673551,17.3873804 23.6636761,16.7130903" id="Fill-54"></path>
                        <path d="M31.6137052,10.7972859 C27.4671081,13.5272534 21.158014,15.6937043 18.2746846,15.2737687 C18.3109073,15.0479761 18.3122657,14.8090606 18.3896918,14.5898295 C18.8574178,13.2682674 19.7032186,12.1516555 20.87276,11.1925194 C22.2379041,10.0732057 23.8566074,10.0415561 25.5622452,10.3105774 C26.6000265,10.4738428 27.6251298,10.7293551 28.6706083,10.8119527 C29.6988811,10.8930065 30.7452652,10.8077071 31.6137052,10.7972859" id="Fill-56"></path>
                    </g>
                    <path d="M20.3531449,65.3189788 C22.3988236,64.421212 24.4209576,63.643482 26.051886,62.2458838 L26.051886,66.6621552 C24.0750305,66.1959032 22.2140877,65.757827 20.3531449,65.3189788" id="Fill-60"></path>
                </g>
                <g id="Group-5-Copy" transform="translate(77.000000, 41.000000) scale(-1, 1) translate(-77.000000, -41.000000) translate(56.000000, 0.000000)">
                    <g id="Group-3">
                        <path d="M41.9143179,76.6847602 C41.2831368,78.2714839 40.6646337,79.852418 40.0117189,81.422159 C39.9587432,81.5499151 39.6580945,81.6992856 39.4928283,81.6834608 C32.6734465,81.0280834 25.981297,79.8535759 19.4353967,78.0850603 C19.0387578,77.9781465 18.9355231,77.816425 18.9382398,77.4860345 C18.9626901,75.0451587 18.9726514,72.6038969 18.9762736,70.1626351 C18.977632,69.0000928 18.9549928,67.8371644 18.9441259,66.6746221 C18.941862,66.455005 18.9436732,66.2353879 18.9436732,65.9744721 C20.4686501,66.3558107 21.8944674,66.7193946 23.3252652,67.0683117 C23.9804439,67.2281034 24.6369809,67.4029479 25.3071014,67.4963527 C26.6210809,67.6796886 27.7290437,68.1833797 28.8080283,68.8360554 C33.0632936,71.4120208 37.3547816,73.9435996 41.6322333,76.4925471 C41.7196207,76.5446531 41.7997635,76.6064083 41.9143179,76.6847602" id="Fill-9"></path>
                        <path d="M6.82110243,58.6274514 C8.00784964,59.1654939 9.10404003,59.7710812 10.2939567,60.1782798 C12.3360132,60.8768859 14.4450817,60.6406721 16.5378499,60.2643511 C17.8930329,60.0208039 19.2468574,59.7513967 20.6169822,59.5931489 C22.6803195,59.3553912 24.5199814,59.8347663 26.0906896,61.0436251 C24.4710808,62.2486241 20.0523604,64.2120548 17.9546115,64.6516749 L17.9546115,72.9982813 C12.8300007,73.4529542 8.34155155,72.3853606 4.50284766,69.4130037 C4.88001684,69.2200186 5.24631921,69.0347529 5.61081043,68.8463994 C6.95105147,68.1528109 7.90099259,67.1508322 8.60280799,65.9825002 C8.75132119,65.7350933 8.71147619,65.3580004 8.63133339,65.0662069 C8.11968732,63.2042865 7.57136574,61.3496995 7.03934438,59.4920247 C6.95150426,59.1863363 6.88358664,58.8764022 6.82110243,58.6274514" id="Fill-13"></path>
                        <path d="M0.532791091,43.800752 C1.34644418,46.2315925 3.56146416,47.4462409 6.00106508,48.4744656 C6.78890947,48.806786 7.5645287,49.1607207 8.34875082,49.4996026 C9.87010551,50.1569099 10.9898407,51.1558009 11.5318233,52.5236794 C12.1838324,54.1690705 12.7317012,55.8464972 13.2596475,57.5250817 C13.4769839,58.2163544 13.2773061,58.3510581 12.463653,58.1839329 C10.5542623,57.7917872 8.78070688,57.1093918 7.28787759,56.0294471 C2.87368506,52.8351574 1.07794319,48.5620808 0.532791091,43.800752" id="Fill-17"></path>
                        <path d="M0.574583066,30.6594688 C0.524324027,32.9864834 2.02213394,34.61219 3.86089031,36.0977895 C4.78683387,36.8457998 5.69104378,37.6142666 6.57397285,38.3985581 C7.61265965,39.320641 7.92734462,40.5121311 7.97443417,41.7179022 C8.03284333,43.2316774 7.95722838,44.7531721 7.8508241,46.2669474 C7.78969825,47.1315207 7.55651442,47.1917321 6.65683234,46.7150589 C3.6729849,45.1352827 1.80026972,42.8538126 0.826331045,40.0011065 C-0.229108772,36.9071691 -0.229108772,33.7943191 0.574583066,30.6594688" id="Fill-22"></path>
                        <path d="M17.0671546,41.5199766 C17.4293819,42.9222065 17.831907,44.3178749 18.1461392,45.7278242 C18.8479546,48.8757974 18.7537755,52.0006125 17.6756965,55.0899183 C17.1952925,56.4666742 17.039082,56.5195521 15.7631363,55.599785 C14.343658,54.575806 13.2633151,53.3453328 12.5465578,51.8720844 C11.9565801,50.6609098 11.9728803,49.4744373 12.7281242,48.3516499 C13.3719833,47.3944437 14.1290384,46.4908873 14.8675293,45.5819274 C15.6829935,44.5784048 16.5577724,43.6049879 16.8122371,42.3586899 C16.867024,42.0892827 16.8896632,41.8148579 16.9267915,41.5427489 C16.9734283,41.5354154 17.020065,41.527696 17.0671546,41.5199766" id="Fill-26"></path>
                        <path d="M16.5893768,32.4956836 C16.5821322,37.444594 15.6992032,42.1565187 11.6662549,46.3300149 C11.4774439,46.0579059 11.3719452,45.8691665 11.2288654,45.7043572 C10.0077066,44.2994255 9.29366603,42.736246 9.08946038,40.9893447 C8.93324986,39.649642 9.43674581,38.5322582 10.5705173,37.6452986 C11.508686,36.9111832 12.5170363,36.239209 13.5253865,35.5741823 C14.8022378,34.7316092 16.0279245,33.8643341 16.5893768,32.4956836" id="Fill-28"></path>
                        <path d="M6.18883466,34.8910149 C5.93346441,34.5880283 5.69756387,34.2715327 5.4200072,33.9835989 C3.24166273,31.7237432 2.5375834,29.0960578 2.77574786,26.2429657 C2.97361452,23.8719506 3.78636204,21.6464462 5.07589126,19.5440663 C5.14245053,19.4352227 5.231649,19.3364143 5.35254236,19.2372199 C4.65842429,21.194475 5.42725175,22.8946739 6.55151475,24.5423809 C7.07085815,25.3035142 7.56439286,26.0781565 8.0484191,26.8558865 C8.58406273,27.7166001 8.68231689,28.639455 8.51976738,29.5912576 C8.25171918,31.1613845 7.68981407,32.6566332 6.92777837,34.0997759 C6.8127712,34.3170772 6.64931613,34.5154659 6.50804748,34.7227319 C6.4016432,34.7786976 6.29523893,34.8350493 6.18883466,34.8910149" id="Fill-32"></path>
                        <path d="M40.2281045,0.330120346 C37.8165762,1.01135782 36.3459333,2.60155521 34.9364163,4.24077082 C33.4870543,5.92630285 31.6156975,7.0618273 29.215036,7.53579875 C27.7389597,7.82759226 26.267864,8.14138606 24.7813737,8.3872491 C24.088614,8.50188227 23.8812389,8.27338788 24.1633234,7.73225761 C25.2006518,5.74258102 26.6409582,4.00301315 28.8487336,2.84085676 C31.5255934,1.43167941 34.5130631,0.832267628 37.611465,0.571351746 C38.4844328,0.49763143 39.3560422,0.410788126 40.2281045,0.330120346" id="Fill-36"></path>
                        <path d="M13.3577659,9.13186289 C12.0356362,10.7139549 12.1058177,12.4411717 12.5631297,14.2158629 C12.7419794,14.9121532 12.8968316,15.6126892 13.0729646,16.3089795 C13.3550492,17.4248195 13.1173375,18.4634654 12.5024566,19.4662161 C11.6109247,20.9209379 10.5369207,22.2563949 9.08303085,23.5100263 C8.84079133,23.1580214 8.60987143,22.8920879 8.46181101,22.5964347 C7.48606121,20.646899 7.33075625,18.6410117 7.94337318,16.5907378 C8.82947173,13.6264863 10.7420319,11.1991195 13.3577659,9.13186289" id="Fill-42"></path>
                        <path d="M24.7938706,1.46444828 C22.7386834,2.83001099 22.2682407,4.78263444 22.0880326,6.79006565 C21.9073717,8.80328643 20.8881546,10.3622202 19.033098,11.5610438 C18.2094837,12.0932968 17.3808887,12.621304 16.5368991,13.1296268 C16.2235725,13.3179803 15.859534,13.4453505 15.3868274,13.6607219 C15.2976289,13.2118385 15.1980164,12.8737286 15.1685854,12.531373 C14.9394767,9.85891503 16.12396,7.61912973 18.1189269,5.63833046 C19.8807099,3.88911333 22.0278123,2.56909511 24.4461324,1.55862502 C24.5543478,1.5134665 24.677505,1.4953259 24.7938706,1.46444828" id="Fill-44"></path>
                        <path d="M18.5738391,24.22218 C17.1493802,28.2223755 15.1145683,31.8921806 11.0834312,34.5001815 C10.3123398,34.9984691 10.1909936,34.9645037 9.87947814,34.1751945 C9.34926792,32.833562 9.23154404,31.4683852 9.50321452,30.0669273 C9.75269858,28.7812604 10.5387318,27.8364053 11.9020649,27.2856258 C13.0326668,26.829023 14.2076417,26.4511581 15.3703913,26.0536087 C16.5874751,25.6371469 17.7506775,25.1604736 18.5738391,24.22218" id="Fill-48"></path>
                        <path d="M23.6636761,16.7130903 C22.650798,17.7602276 21.675501,18.8355407 20.6173444,19.8483266 C18.648639,21.7326333 16.3385344,23.2313558 13.5647788,24.1723512 C12.4536465,24.5494441 12.3653536,24.5085313 12.3562979,23.5115701 C12.3440727,22.2328507 12.6845664,21.0274657 13.3641954,19.882292 C14.0066961,18.7996455 15.0059907,18.1268993 16.3983019,17.9288966 C17.4369887,17.781456 18.489259,17.6884371 19.540171,17.6197344 C20.966441,17.5263296 22.3673551,17.3873804 23.6636761,16.7130903" id="Fill-54"></path>
                        <path d="M31.6137052,10.7972859 C27.4671081,13.5272534 21.158014,15.6937043 18.2746846,15.2737687 C18.3109073,15.0479761 18.3122657,14.8090606 18.3896918,14.5898295 C18.8574178,13.2682674 19.7032186,12.1516555 20.87276,11.1925194 C22.2379041,10.0732057 23.8566074,10.0415561 25.5622452,10.3105774 C26.6000265,10.4738428 27.6251298,10.7293551 28.6706083,10.8119527 C29.6988811,10.8930065 30.7452652,10.8077071 31.6137052,10.7972859" id="Fill-56"></path>
                    </g>
                    <path d="M20.3531449,65.3189788 C22.3988236,64.421212 24.4209576,63.643482 26.051886,62.2458838 L26.051886,66.6621552 C24.0750305,66.1959032 22.2140877,65.757827 20.3531449,65.3189788" id="Fill-60"></path>
                </g>
            </g>
        </g>
    </g>
</svg>